{
  "products": [
    {
      "id": 1,
      "name": "Bloem 1",
      "description": "Prachtige bloem 1",
      "price": 99.95,
      "stock": 200
    },
    {
      "id": 2,
      "name": "Bloem 2",
      "description": "Prachtige bloem 2",
      "price": 199.95,
      "stock": 50
    },
    {
      "id": 3,
      "name": "Bloem 3",
      "description": "Prachtige bloem 3",
      "price": 299.95,
      "stock": 200
    },
    {
      "id": 4,
      "name": "Bloem 4",
      "description": "Prachtige bloem 4",
      "price": 399.95,
      "stock": 1000
    },
    {
      "id": 5,
      "name": "Bloem 5",
      "description": "Prachtige bloem 5",
      "price": 1000,
      "stock": 40
    },
    {
      "id": 7,
      "name": "Bloem 6",
      "description": "Prachtige bloem 6",
      "price": 100,
      "stock": 50
    }
  ],
  "orders": [
    {
      "id": 3,
      "customerName": "test",
      "shippingAddress": "ergens in NL",
      "orderedAt": "2022-02-17T09:30:00.000Z",
      "products": [
        {
          "productId": 1,
          "quantity": 20
        },
        {
          "productId": 2,
          "quantity": 30
        }
      ]
    },
    {
      "id": 4,
      "customerName": "test klant 2",
      "shippingAddress": "ergens in NL 3",
      "orderedAt": "2022-02-26T14:30:00.000Z",
      "products": [
        {
          "productId": 2,
          "quantity": 10
        },
        {
          "productId": 3,
          "quantity": 20
        }
      ]
    },
    {
      "id": 5,
      "customerName": "test klant 6",
      "shippingAddress": "ergens in NL 7",
      "orderedAt": "2022-03-05T20:30:00.000Z",
      "products": [
        {
          "productId": 2,
          "quantity": 11
        },
        {
          "productId": 3,
          "quantity": 32
        }
      ]
    }
  ]
}